[
  {
    "accountDTO": {
      "username": "employee",
      "password": "employee",
      "email": "employee@employee.com",
      "avatar": "https://cdn.iconscout.com/icon/free/png-512/user-employee-avatar-man-person-businessman-11-16779.png",
      "role": "Manager"
    },
    "employeeDTO": {
      "fullName": "Employee",
      "phone": "0125452230",
      "dob": "1990-10-22",
      "address": "222 nt",
      "image": "https://cdn.iconscout.com/icon/free/png-512/user-employee-avatar-man-person-businessman-11-16779.png",
      "idCard": "21214213312",
      "gender": "Male"
    }
  },
  {
    "accountDTO": {
      "username": "employee001",
      "password": "employee",
      "email": "employee001@employee.com",
      "avatar": "https://cdn.iconscout.com/icon/free/png-512/user-employee-avatar-man-person-businessman-11-16779.png",
      "role": "Manager"
    },
    "employeeDTO": {
      "fullName": "Employee001",
      "phone": "0125454540",
      "dob": "1999-10-22",
      "address": "292 nt",
      "image": "https://cdn.iconscout.com/icon/free/png-512/user-employee-avatar-man-person-businessman-11-16779.png",
      "idCard": "212890512",
      "gender": "FeMale"
    }
  },
  {
    "accountDTO": {
      "username": "employee002",
      "password": "employee",
      "email": "employe002e@employee.com",
      "avatar": "https://cdn.iconscout.com/icon/free/png-512/user-employee-avatar-man-person-businessman-11-16779.png",
      "role": "Manager"
    },
    "employeeDTO": {
      "fullName": "Employee002",
      "phone": "01254789780",
      "dob": "1996-10-22",
      "address": "222 bmt",
      "image": "https://cdn.iconscout.com/icon/free/png-512/user-employee-avatar-man-person-businessman-11-16779.png",
      "idCard": "217864312",
      "gender": "Others"
    }
  },
  {
    "accountDTO": {
      "username": "employee003",
      "password": "employee",
      "email": "employee003@employee.com",
      "avatar": "https://cdn.iconscout.com/icon/free/png-512/user-employee-avatar-man-person-businessman-11-16779.png",
      "role": "Manager"
    },
    "employeeDTO": {
      "fullName": "Employee003",
      "phone": "0125459070",
      "dob": "1997-10-22",
      "address": "2228 tt",
      "image": "https://cdn.iconscout.com/icon/free/png-512/user-employee-avatar-man-person-businessman-11-16779.png",
      "idCard": "21218980312",
      "gender": "Male"
    }
  },
  {
    "accountDTO": {
      "username": "employee004",
      "password": "employee",
      "email": "employee004@employee.com",
      "avatar": "https://cdn.iconscout.com/icon/free/png-512/user-employee-avatar-man-person-businessman-11-16779.png",
      "role": "Manager"
    },
    "employeeDTO": {
      "fullName": "Employee004",
      "phone": "0125450980",
      "dob": "1990-10-22",
      "address": "222 ntn",
      "image": "https://cdn.iconscout.com/icon/free/png-512/user-employee-avatar-man-person-businessman-11-16779.png",
      "idCard": "2126546312",
      "gender": "Male"
    }
  }
]