[
  {
    "name": "Slot 1",
    "startTime": "07:30",
    "endTime": "09:00"
  },
  {
    "name": "Slot 2",
    "startTime": "09:10",
    "endTime": "10:40"
  },
  {
    "name": "Slot 3",
    "startTime": "10:50",
    "endTime": "12:20"
  },
  {
    "name": "Slot 4",
    "startTime": "12:50",
    "endTime": "14:20"
  },
  {
    "name": "Slot 5",
    "startTime": "14:30",
    "endTime": "16:00"
  },
  {
    "name": "Slot 6",
    "startTime": "16:10",
    "endTime": "17:40"
  },
  {
    "name": "Slot 7",
    "startTime": "17:50",
    "endTime": "19:20"
  },
  {
    "name": "Slot 8",
    "startTime": "19:30",
    "endTime": "21:00"
  }
]