[
  {
    "accountDTO": {
      "username": "student",
      "password": "student",
      "email": "student@student.com",
      "avatar": "https://cdn.iconscout.com/icon/free/png-512/user-employee-avatar-man-person-businessman-11-16779.png",
      "role": "Student"
    },
    "studentDTO": {
      "fullName": "Student",
      "phone": "0125452230",
      "dob": "1990-10-22",
      "address": "222 nt",
      "image": "https://res.cloudinary.com/dvlsudref/image/upload/v1572848837/nrq1cdob3pakqld1zmxz.jpg",
      "idCard": "212142133121",
      "gender": "Male",
      "parentPhone": "0948574637",
      "rollNumber": "D00421",
      "startYear": "2018-11-11",
      "endYear": "2020-11-30"
    }
  },
  {
    "accountDTO": {
      "username": "student001",
      "password": "student",
      "email": "student001@student.com",
      "avatar": "https://cdn.iconscout.com/icon/free/png-512/user-employee-avatar-man-person-businessman-11-16779.png",
      "role": "Student"
    },
    "studentDTO": {
      "fullName": "Student001",
      "phone": "0125454542",
      "dob": "1999-10-22",
      "address": "292 nt",
      "image": "https://res.cloudinary.com/dvlsudref/image/upload/v1573020094/qgj4bl96rkdpq7zupzfl.jpg",
      "idCard": "212890512342",
      "gender": "FeMale",
      "parentPhone": "0958473746",
      "rollNumber": "D00422",
      "startYear": "2018-11-11",
      "endYear": "2020-11-30"
    }
  },
  {
    "accountDTO": {
      "username": "student002",
      "password": "student",
      "email": "student002e@student.com",
      "avatar": "https://cdn.iconscout.com/icon/free/png-512/user-employee-avatar-man-person-businessman-11-16779.png",
      "role": "Student"
    },
    "studentDTO": {
      "fullName": "Student002",
      "phone": "01254789783",
      "dob": "1996-10-22",
      "address": "222 bmt",
      "image": "https://cdn.iconscout.com/icon/free/png-512/user-employee-avatar-man-person-businessman-11-16779.png",
      "idCard": "217864312345",
      "gender": "Others",
      "parentPhone": "0959483827",
      "rollNumber": "D00423",
      "startYear": "2018-11-11",
      "endYear": "2020-11-30"
    }
  },
  {
    "accountDTO": {
      "username": "student003",
      "password": "student",
      "email": "student003@student.com",
      "avatar": "https://cdn.iconscout.com/icon/free/png-512/user-employee-avatar-man-person-businessman-11-16779.png",
      "role": "Student"
    },
    "studentDTO": {
      "fullName": "Student003",
      "phone": "0125459076",
      "dob": "1997-10-22",
      "address": "2228 tt",
      "image": "https://cdn.iconscout.com/icon/free/png-512/user-employee-avatar-man-person-businessman-11-16779.png",
      "idCard": "212189803123",
      "gender": "Male",
      "parentPhone": "0965837598",
      "rollNumber": "D00424",
      "startYear": "2018-11-11",
      "endYear": "2020-11-30"
    }
  },
  {
    "accountDTO": {
      "username": "student004",
      "password": "student",
      "email": "student004@student.com",
      "avatar": "https://cdn.iconscout.com/icon/free/png-512/user-employee-avatar-man-person-businessman-11-16779.png",
      "role": "Student"
    },
    "studentDTO": {
      "fullName": "Student004",
      "phone": "0125450984",
      "dob": "1990-10-22",
      "address": "222 ntn",
      "image": "https://cdn.iconscout.com/icon/free/png-512/user-employee-avatar-man-person-businessman-11-16779.png",
      "idCard": "212654631423",
      "gender": "Male",
      "parentPhone": "0958374658",
      "rollNumber": "D00425",
      "startYear": "2018-11-11",
      "endYear": "2020-11-30"
    }
  },
  {
    "accountDTO": {
      "username": "student005",
      "password": "student",
      "email": "student005@student.com",
      "avatar": "https://cdn.iconscout.com/icon/free/png-512/user-employee-avatar-man-person-businessman-11-16779.png",
      "role": "Student"
    },
    "studentDTO": {
      "fullName": "Student005",
      "phone": "0125456556",
      "dob": "1990-10-22",
      "address": "222 bthg",
      "image": "https://cdn.iconscout.com/icon/free/png-512/user-employee-avatar-man-person-businessman-11-16779.png",
      "idCard": "412421512568",
      "gender": "Male",
      "parentPhone": "0956847385",
      "rollNumber": "D00426",
      "startYear": "2018-11-11",
      "endYear": "2020-11-30"
    }
  },
  {
    "accountDTO": {
      "username": "student006",
      "password": "student",
      "email": "student006@student.com",
      "avatar": "https://cdn.iconscout.com/icon/free/png-512/user-employee-avatar-man-person-businessman-11-16779.png",
      "role": "Student"
    },
    "studentDTO": {
      "fullName": "Student006",
      "phone": "1251245434",
      "dob": "1997-10-22",
      "address": "222 ntn",
      "image": "https://cdn.iconscout.com/icon/free/png-512/user-employee-avatar-man-person-businessman-11-16779.png",
      "idCard": "212654631223",
      "gender": "Male",
      "parentPhone": "0958473856",
      "rollNumber": "D00427",
      "startYear": "2018-11-11",
      "endYear": "2020-11-30"
    }
  },
  {
    "accountDTO": {
      "username": "student007",
      "password": "student",
      "email": "student007@student.com",
      "avatar": "https://cdn.iconscout.com/icon/free/png-512/user-employee-avatar-man-person-businessman-11-16779.png",
      "role": "Student"
    },
    "studentDTO": {
      "fullName": "Student007",
      "phone": "2151415421",
      "dob": "1994-10-22",
      "address": "222 ntn",
      "image": "https://cdn.iconscout.com/icon/free/png-512/user-employee-avatar-man-person-businessman-11-16779.png",
      "idCard": "421421512421",
      "gender": "Male",
      "parentPhone": "0948567385",
      "rollNumber": "D00428",
      "startYear": "2018-11-11",
      "endYear": "2020-11-30"
    }
  }
]